task1/task1.sim/sim_1/behav/xsim/simulate.log
Vivado Simulator 2019.1
Time resolution is 1 ps
Time	 a	 b	 f
------------------------
10000	 0	 0	 000
20000	 0	 0	 010
30000	 0	 0	 100
40000	 0	 0	 110
50000	 0	 1	 000
60000	 0	 1	 010
70000	 0	 1	 100
80000	 0	 1	 110
90000	 1	 0	 000
100000	 1	 0	 010
110000	 1	 0	 100
120000	 1	 0	 110
130000	 1	 1	 000
140000	 1	 1	 010
150000	 1	 1	 100
$finish called at time : 160 ns : File "/home/it/task1-4bit/task1-4bit.srcs/sim_1/new/benchtest.sv" Line 74
